{
	"id": "05fe9dbc-fc1d-4629-821d-f0334de4e741",
	"values": [
		{
			"key": "host",
			"value": "localhost:3003/api",
			"enabled": true
		},
		{
			"key": "token",
			"value": "eyJhbGciOiJIUzI1NiIsInR5cCI6IkpXVCJ9.eyJ1c2VyX2lkIjoiMSIsImlhdCI6MTYzOTA2NTY5MiwiZXhwIjoxNjcwNjAxNjkyfQ.vo8tIJgskuG8Z0n54U6EODCUsKw7a0lZ0IkHB6J4BI0",
			"enabled": true
		},
		{
			"key": "email",
			"value": "email@gmail.com",
			"enabled": true
		}
	],
	"name": "Globals",
	"_postman_variable_scope": "globals",
	"_postman_exported_at": "2021-12-16T20:36:06.243Z",
	"_postman_exported_using": "Postman/9.3.1"
}